Focused Line Higlighting
…
---

```r
diamonds %>% 
  arrange(price) %>% 
  filter(price > 300) %>%
  mutate(log_price = log(price)) %>% 
  select(carat, cut, color, clarity, price, log_price)
```

```
## # A tibble: 53,940 x 6
##    carat cut       color clarity price log_price
##    <dbl> <ord>     <ord> <ord>   <int>     <dbl>
##  1 0.23  Ideal     E     SI2       326      5.79
##  2 0.21  Premium   E     SI1       326      5.79
##  3 0.23  Good      E     VS1       327      5.79
##  4 0.290 Premium   I     VS2       334      5.81
##  5 0.31  Good      J     SI2       335      5.81
##  6 0.24  Very Good J     VVS2      336      5.82
##  7 0.24  Very Good I     VVS1      336      5.82
##  8 0.26  Very Good H     SI1       337      5.82
##  9 0.22  Fair      E     VS2       337      5.82
## 10 0.23  Very Good H     VS1       338      5.82
## # â€¦ with 53,930 more rows
```

---

```r
diamonds %>% 
  arrange(price) %>% 
* filter(price > 300) %>%
  mutate(log_price = log(price)) %>% 
* select(carat, cut, color, clarity, price, log_price)
```

```
*## # A tibble: 53,940 x 6
*##    carat cut       color clarity price log_price
##    <dbl> <ord>     <ord> <ord>   <int>     <dbl>
##  1 0.23  Ideal     E     SI2       326      5.79
##  2 0.21  Premium   E     SI1       326      5.79
##  3 0.23  Good      E     VS1       327      5.79
##  4 0.290 Premium   I     VS2       334      5.81
##  5 0.31  Good      J     SI2       335      5.81
##  6 0.24  Very Good J     VVS2      336      5.82
##  7 0.24  Very Good I     VVS1      336      5.82
##  8 0.26  Very Good H     SI1       337      5.82
##  9 0.22  Fair      E     VS2       337      5.82
## 10 0.23  Very Good H     VS1       338      5.82
## # â€¦ with 53,930 more rows
```
…
